COMPSCIX 415.2 Homework 5/Midterm
…
## # A tibble: 5 x 4
##   cut       number_of_diamonds group_below10K_smaller1.5 group_proportion
##   <ord>                  <int>                      <int>            <dbl>
## 1 Fair                    1610                          4          0.00248
## 2 Good                    4906                         17          0.00347
## 3 Very Good              12082                        155          0.0128 
## 4 Premium                13791                        173          0.0125 
## 5 Ideal                  21551                        485          0.0225

dataset <- filter(diamonds, price>10000 & carat < 1.5)
dataset

## # A tibble: 834 x 11
##    carat cut       color clarity depth table price     x     y     z
##    <dbl> <ord>     <ord> <ord>   <dbl> <dbl> <int> <dbl> <dbl> <dbl>
##  1  1.03 Ideal     E     VVS2     60.6    59 10003  6.5   6.53  3.95
##  2  1.23 Very Good G     VVS2     60.6    55 10004  6.93  7.02  4.23
##  3  1.25 Ideal     F     VS2      61.6    55 10006  6.93  6.96  4.28
##  4  1.21 Very Good F     VS1      62.3    58 10009  6.76  6.85  4.24
##  5  1.01 Fair      D     SI2      64.6    58 10011  6.25  6.2   4.02
##  6  1.05 Ideal     F     VVS2     60.5    55 10011  6.67  6.58  4.01
##  7  1.35 Premium   G     VS1      62.1    59 10012  7.06  7.02  4.37
##  8  1.13 Ideal     F     VS1      60.9    57 10016  6.73  6.76  4.11
##  9  1.21 Premium   F     VS1      62.6    59 10018  6.81  6.76  4.25
## 10  1.01 Very Good F     VVS1     62.9    57 10019  6.35  6.41  4.01
## # ... with 824 more rows, and 1 more variable: price_per_carat <dbl>
…
EDA (6 points)

Take a look at the txhousing data set that is included with the ggplot2 package and answer these questions:

During what time period is this data from?

# Between the years of 2000 to 2015
txhousing

## # A tibble: 8,602 x 9
##    city     year month sales   volume median listings inventory  date
##    <chr>   <int> <int> <dbl>    <dbl>  <dbl>    <dbl>     <dbl> <dbl>
##  1 Abilene  2000     1    72  5380000  71400      701       6.3 2000 
##  2 Abilene  2000     2    98  6505000  58700      746       6.6 2000.
##  3 Abilene  2000     3   130  9285000  58100      784       6.8 2000.
##  4 Abilene  2000     4    98  9730000  68600      785       6.9 2000.
##  5 Abilene  2000     5   141 10590000  67300      794       6.8 2000.
##  6 Abilene  2000     6   156 13910000  66900      780       6.6 2000.
##  7 Abilene  2000     7   152 12635000  73500      742       6.2 2000.
##  8 Abilene  2000     8   131 10710000  75000      765       6.4 2001.
##  9 Abilene  2000     9   104  7615000  64500      771       6.5 2001.
## 10 Abilene  2000    10   101  7040000  59300      764       6.6 2001.
## # ... with 8,592 more rows
…
How many cities are represented?

# 46 cities are represented.
nrow(distinct(txhousing, city))

## [1] 46

Which city, month and year had the highest number of sales?

# Houston, in July 2015 had the highest number of sales.
txhousing %>%
  group_by(city, month, year) %>%
  arrange(desc(sales))

## # A tibble: 8,602 x 9
## # Groups:   city, month, year [8,602]
##    city     year month sales     volume median listings inventory  date
##    <chr>   <int> <int> <dbl>      <dbl>  <dbl>    <dbl>     <dbl> <dbl>
##  1 Houston  2015     7  8945 2568156780 217600    23875       3.4 2016.
##  2 Houston  2006     6  8628 1795898108 155200    36281       5.6 2006.
##  3 Houston  2013     7  8468 2168720825 187800    21497       3.3 2014.
##  4 Houston  2015     6  8449 2490238594 222400    22311       3.2 2015.
##  5 Houston  2013     5  8439 2121508529 186100    20526       3.3 2013.
##  6 Houston  2014     6  8391 2342443127 211200    19725       2.9 2014.
##  7 Houston  2014     7  8391 2278932511 199700    20214       3   2014.
##  8 Houston  2014     8  8167 2195184825 202400    20007       2.9 2015.
##  9 Houston  2013     8  8155 2083377894 186700    21366       3.3 2014.
## 10 Houston  2006     5  8040 1602621368 151200    35398       5.5 2006.
## # ... with 8,592 more rows
…
What proportion of sales is missing for each city?

# Here are the missing sales proportion below.
txhousing %>% group_by(city) %>% 
  summarize(proportion = mean(is.na(sales)))

## # A tibble: 46 x 2
##    city                  proportion
##    <chr>                      <dbl>
##  1 Abilene                   0     
##  2 Amarillo                  0     
##  3 Arlington                 0     
##  4 Austin                    0     
##  5 Bay Area                  0     
##  6 Beaumont                  0     
##  7 Brazoria County           0.0749
##  8 Brownsville               0.0107
##  9 Bryan-College Station     0     
## 10 Collin County             0     
## # ... with 36 more rows

Looking at only the cities and months with greater than 500 sales:

housesale500 <- txhousing %>% group_by(city, month) %>% filter(sales>500)
housesale500

## # A tibble: 1,883 x 9
## # Groups:   city, month [153]
##    city       year month sales   volume median listings inventory  date
##    <chr>     <int> <int> <dbl>    <dbl>  <dbl>    <dbl>     <dbl> <dbl>
##  1 Arlington  2000     8   507 60875199 103400     1417       3.5 2001.
##  2 Arlington  2001     5   536 69878959 114400     1592       3.7 2001.
##  3 Arlington  2001     6   534 67744182 108500     1627       3.8 2001.
##  4 Arlington  2001     8   505 65080743 113600     1616       3.7 2002.
##  5 Arlington  2002     5   503 67240236 116100     1741       3.9 2002.
##  6 Arlington  2002     7   509 66954143 119100     1925       4.4 2002.
##  7 Arlington  2003     5   502 67131982 118000     2544       5.9 2003.
##  8 Arlington  2003     7   524 73194692 123500     2799       6.5 2004.
##  9 Arlington  2003     8   531 72397143 123900     2801       6.4 2004.
## 10 Arlington  2004     5   527 72401436 118300     2922       6.5 2004.
## # ... with 1,873 more rows

A. Are the distributions of the median sales price (column name median), when grouped by city, different? The same? Show your work.

#6A. Median sale prices when grouped by city are very different. 
housesale500 %>% group_by(city) %>%arrange(median)

## # A tibble: 1,883 x 9
## # Groups:   city [14]
##    city         year month sales    volume median listings inventory  date
##    <chr>       <int> <int> <dbl>     <dbl>  <dbl>    <dbl>     <dbl> <dbl>
##  1 Fort Worth   2000     3   588  57458826  79300     2247       4.3 2000.
##  2 El Paso      2000     8   538  53800000  81700     3396       8   2001.
##  3 Fort Worth   2000     5   630  67131123  81700     2193       4.2 2000.
##  4 El Paso      2002     4   569  54015000  82300     3107       7   2002.
##  5 Fort Worth   2000     7   548  57460916  85100     2362       4.5 2000.
##  6 Fort Worth   2000    10   539  57992200  85300     2573       4.8 2001.
##  7 Fort Worth   2000     6   648  70773279  85900     2212       4.2 2000.
##  8 Fort Worth   2001    10   546  57130944  85900     2769       4.9 2002.
##  9 Fort Worth   2001     3   621  63260951  86000     2511       4.7 2001.
## 10 San Antonio  2000     2  1075 120851076  86000     5933       4.7 2000.
## # ... with 1,873 more rows
…
